<?xml version="1.0" encoding="UTF-8" standalone="no"?>
<!-- Generator: Gravit.io -->

<svg
   xmlns:dc="http://purl.org/dc/elements/1.1/"
   xmlns:cc="http://creativecommons.org/ns#"
   xmlns:rdf="http://www.w3.org/1999/02/22-rdf-syntax-ns#"
   xmlns:svg="http://www.w3.org/2000/svg"
   xmlns="http://www.w3.org/2000/svg"
   xmlns:sodipodi="http://sodipodi.sourceforge.net/DTD/sodipodi-0.dtd"
   xmlns:inkscape="http://www.inkscape.org/namespaces/inkscape"
   style="isolation:isolate"
   viewBox="-1561.5 5367.857 5678.333 603.14454"
   width="5678.333"
   height="603.14453"
   id="svg2"
   version="1.1"
   inkscape:version="0.91 r13725"
   sodipodi:docname="road-snake-v4.svg">
  <metadata
     id="metadata79">
    <rdf:RDF>
      <cc:Work
         rdf:about="">
        <dc:format>image/svg+xml</dc:format>
        <dc:type
           rdf:resource="http://purl.org/dc/dcmitype/StillImage" />
        <dc:title></dc:title>
      </cc:Work>
    </rdf:RDF>
  </metadata>
  <defs
     id="defs77" />
  <sodipodi:namedview
     pagecolor="#ffffff"
     bordercolor="#666666"
     borderopacity="1"
     objecttolerance="10"
     gridtolerance="10"
     guidetolerance="10"
     inkscape:pageopacity="0"
     inkscape:pageshadow="2"
     inkscape:window-width="1920"
     inkscape:window-height="1017"
     id="namedview75"
     showgrid="false"
     fit-margin-top="0"
     fit-margin-left="0"
     fit-margin-right="0"
     fit-margin-bottom="0"
     inkscape:zoom="0.15011556"
     inkscape:cx="1532.4994"
     inkscape:cy="-220.19176"
     inkscape:window-x="1912"
     inkscape:window-y="-8"
     inkscape:window-maximized="1"
     inkscape:current-layer="svg2" />
  <g
     id="g4"
     transform="translate(-1481.5,-95.074682)">
    <path
       d="m 3123.454,5663.47 -54.44,31.743 c -4.768,2.78 -12.524,2.804 -17.308,0.053 l -303.704,-174.615 c -4.784,-2.751 -12.538,-2.725 -17.304,0.058 l -181.396,105.915 c -4.766,2.783 -12.511,2.795 -17.286,0.026 l -162.032,-93.967 c -4.775,-2.769 -12.549,-2.807 -17.351,-0.086 l -42.6,24.139 c -4.801,2.721 -4.821,7.173 -0.042,9.936 l 361.852,209.198 c 0.124,0.072 0.244,0.144 0.362,0.218 l 0,0 0,0 0,0 0,0 0,0 3.186,-4.369 0,8.606 c 0.269,1.993 -0.912,4.041 -3.542,5.566 l -142.448,82.593 c -4.775,2.768 -12.529,2.771 -17.306,0.01 l -543.69,-314.73 c -4.777,-2.765 -12.539,-2.776 -17.323,-0.024 l -122.164,70.278 c -4.784,2.752 -4.791,7.232 -0.015,9.999 l 403.444,233.724 c 4.776,2.767 4.768,7.246 -0.017,9.996 l -143.16,82.284 c -4.785,2.75 -12.552,2.745 -17.333,-0.012 l -742.424,-428.01 c -4.781,-2.757 -12.543,-2.754 -17.323,0.01 l -122.93,70.998 c -4.78,2.76 -4.775,7.234 0.01,9.985 l 203.16,116.782 c 0.031,0.018 0.061,0.036 0.091,0.053 l 3.454,-4.381 0.039,9.125 0,0 0,0 c 0.082,1.861 -1.116,3.736 -3.593,5.151 l -103.386,59.078 c -4.792,2.738 -12.568,2.73 -17.355,-0.017 L 824.204,5541.987 c -2.872,-1.649 -7.535,-1.647 -10.405,0 l -29.598,17.018 c -2.87,1.651 -2.854,4.303 0.037,5.918 l 88.033,49.195 c 4.817,2.692 4.827,7.08 0.02,9.793 l -87.066,49.136 c -2.884,1.628 -2.903,4.304 -0.043,5.974 l 206.544,120.562 0,0 4.212,-4.212 0,9.375 -0.025,-0.014 c 0.091,1.878 -1.117,3.766 -3.622,5.179 l -83.582,47.17 c -4.807,2.713 -12.594,2.682 -17.379,-0.067 L 684.202,5737.989 c -2.871,-1.649 -7.569,-1.714 -10.485,-0.144 l -28.434,15.31 c -2.916,1.57 -2.979,4.231 -0.142,5.938 l 104.29,62.751 c 4.73,2.846 4.706,7.426 -0.053,10.221 l -222.756,130.87 c -4.759,2.795 -12.491,2.805 -17.257,0.022 l -381.73,-222.914 c -4.766,-2.783 -12.515,-2.801 -17.293,-0.039 L -80,5850 l 0,-47 191.319,-109.411 c 4.791,-2.74 12.562,-2.724 17.342,0.035 l 382.678,220.877 c 4.78,2.759 12.554,2.78 17.348,0.046 l 143.126,-81.594 c 4.794,-2.734 4.808,-7.197 0.031,-9.961 l -103.688,-59.984 c -2.577,-1.491 -3.764,-3.485 -3.562,-5.438 l 0,0 0.015,-7.14 2.683,3.112 c 0.268,-0.191 0.555,-0.376 0.861,-0.554 l 102.694,-59.476 c 4.776,-2.766 12.54,-2.783 17.328,-0.038 l 207.62,119.042 c 2.873,1.647 7.547,1.663 10.431,0.036 l 9.048,-5.104 c 2.884,-1.627 2.9,-4.296 0.035,-5.957 L 709.152,5682.014 c -2.676,-1.55 -3.851,-3.641 -3.527,-5.666 l 0,-7.66 3.679,3.224 0,0 82.038,-47.408 c 4.778,-2.762 4.787,-7.261 0.019,-10.04 l -82.222,-47.928 c -4.768,-2.779 -4.775,-7.305 -0.016,-10.101 l 101.504,-59.62 c 4.759,-2.796 12.502,-2.823 17.281,-0.061 l 443.309,256.242 c 4.779,2.762 12.568,2.816 17.384,0.12 l 23.423,-13.107 c 4.816,-2.696 4.847,-7.126 0.068,-9.888 l -203.934,-117.867 c -2.428,-1.403 -3.621,-3.249 -3.579,-5.085 l 0,0 -0.016,0.019 0,-9.188 3.708,4.214 202.682,-116.36 c 4.786,-2.748 12.55,-2.734 17.326,0.031 l 741.734,429.438 c 4.776,2.765 12.532,2.767 17.31,0 l 63.354,-36.652 c 4.778,-2.764 4.779,-7.254 0,-10.021 l -402.695,-233.306 c -2.447,-1.418 -3.637,-3.284 -3.573,-5.137 l -0.01,0.01 0,-9.047 3.212,4.419 0,0 c 0.126,-0.079 0.256,-0.157 0.39,-0.233 l 203.318,-116.632 c 4.787,-2.746 12.554,-2.735 17.333,0.026 l 543.182,313.746 c 4.779,2.761 12.499,2.693 17.229,-0.151 l 61.86,-37.194 c 4.73,-2.844 4.688,-7.391 -0.093,-10.148 l -361.674,-208.51 c -2.436,-1.405 -3.632,-3.258 -3.587,-5.103 l -0.013,0.014 0,-9.25 3.251,4.542 c 0.111,-0.069 0.225,-0.138 0.342,-0.205 l 122.063,-70.611 c 4.777,-2.763 12.55,-2.79 17.346,-0.059 l 163.745,93.229 c 4.796,2.731 12.572,2.71 17.354,-0.046 l 182.172,-105.012 c 4.782,-2.756 12.542,-2.749 17.319,0.016 l 302.857,175.314 c 3.568,2.065 8.803,2.593 13.217,1.581 l 104.754,-60.998 c 4.77,-2.777 12.52,-2.787 17.296,-0.022 l 741.734,429.438 c 4.776,2.765 12.532,2.767 17.31,0 l 63.354,-36.652 c 4.778,-2.764 4.779,-7.254 0,-10.021 l -402.695,-233.306 c -2.517,-1.459 -3.705,-3.392 -3.564,-5.297 l 0,-8.816 3.215,4.345 0,0 c 0.12,-0.075 0.244,-0.149 0.371,-0.221 l 203.318,-116.632 c 4.787,-2.746 12.554,-2.735 17.333,0.026 l 543.182,313.746 c 4.779,2.761 12.499,2.693 17.229,-0.151 l 61.86,-37.194 c 4.73,-2.844 4.688,-7.391 -0.093,-10.148 l -361.674,-208.51 c -2.45,-1.413 -3.646,-3.28 -3.586,-5.135 l -0.014,0.015 0,0 0,0 0,0 0,0 0,0 0,0 0,0 0,0 0,0 0,-8.625 3.688,3.688 121.968,-70.556 c 4.777,-2.763 12.55,-2.79 17.346,-0.059 l 163.745,93.229 c 4.796,2.731 12.572,2.71 17.354,-0.046 l 182.172,-105.012 c 4.782,-2.756 12.542,-2.749 17.319,0.016 l 302.857,175.314 c 4.777,2.765 12.539,2.775 17.322,0.022 l 101.999,-58.692 c 4.783,-2.753 12.561,-2.77 17.357,-0.039 l 284.62,162.103 c 4.796,2.731 12.567,2.703 17.343,-0.064 L 5559.667,5735 l 30.892,19.175 7.691,-4.3 0,9.063 0,0 0,0 0,0 0,0 0,0 0,0 0,0 -0.285,-0.166 0.368,0.228 -249.345,144.324 c -4.777,2.765 -12.536,2.77 -17.317,0.013 l -284.009,-163.84 c -4.781,-2.758 -12.533,-2.74 -17.301,0.04 l -102.347,59.676 c -4.768,2.78 -12.524,2.804 -17.308,0.053 l -303.704,-174.615 c -4.784,-2.751 -12.538,-2.725 -17.304,0.058 l -181.396,105.915 c -4.766,2.783 -12.511,2.795 -17.286,0.026 l -162.032,-93.967 c -4.775,-2.769 -12.549,-2.807 -17.351,-0.086 l -42.6,24.139 c -4.801,2.721 -4.821,7.173 -0.042,9.936 l 361.852,209.198 c 0.147,0.085 0.29,0.172 0.428,0.26 l 0,0 3.182,-4.38 -0.039,8.791 c 0.159,1.924 -1.03,3.88 -3.565,5.35 l -142.448,82.593 c -4.775,2.768 -12.529,2.771 -17.306,0.01 l -543.69,-314.73 c -4.777,-2.765 -12.539,-2.776 -17.323,-0.024 l -122.164,70.278 c -4.784,2.752 -4.791,7.232 -0.015,9.999 l 403.183,233.573 0,0 3.773,-3.773 0,8.194 c 0.364,2.046 -0.812,4.165 -3.529,5.726 l -143.16,82.284 c -4.785,2.75 -12.552,2.745 -17.333,-0.012 l -742.424,-428.01 c -4.781,-2.757 -12.544,-2.756 -17.325,0 l -47.634,27.474 z"
       id="path6"
       inkscape:connector-curvature="0"
       style="fill:#d1d8f2;fill-rule:evenodd" />
    <path
       d="m 752.953,5827.094 0,-9.75 -4.453,5.015 4.453,4.735 z"
       id="path8"
       inkscape:connector-curvature="0"
       style="fill:#d1d8f2" />
    <path
       d="m 3123.454,5654.47 -54.44,31.743 c -4.768,2.78 -12.524,2.804 -17.308,0.053 l -303.704,-174.615 c -4.784,-2.751 -12.538,-2.725 -17.304,0.058 l -181.396,105.915 c -4.766,2.783 -12.511,2.795 -17.286,0.026 l -162.032,-93.967 c -4.775,-2.769 -12.549,-2.807 -17.351,-0.086 l -42.6,24.139 c -4.801,2.721 -4.821,7.173 -0.042,9.936 l 361.852,209.198 c 4.778,2.762 4.781,7.253 0.01,10.021 l -142.448,82.593 c -4.775,2.768 -12.529,2.771 -17.306,0.01 l -543.69,-314.73 c -4.777,-2.765 -12.539,-2.776 -17.323,-0.024 l -122.164,70.278 c -4.784,2.752 -4.791,7.232 -0.015,9.999 l 403.444,233.724 c 4.776,2.767 4.768,7.246 -0.017,9.996 l -143.16,82.284 c -4.785,2.75 -12.552,2.745 -17.333,-0.012 l -742.424,-428.01 c -4.781,-2.757 -12.543,-2.754 -17.323,0.01 l -122.93,70.998 c -4.78,2.76 -4.775,7.234 0.01,9.985 l 203.16,116.782 c 4.785,2.751 4.78,7.207 -0.012,9.945 l -103.386,59.078 c -4.792,2.738 -12.568,2.73 -17.355,-0.017 L 824.204,5532.987 c -2.872,-1.649 -7.535,-1.647 -10.405,0 l -29.598,17.018 c -2.87,1.651 -2.854,4.303 0.037,5.918 l 88.033,49.195 c 4.817,2.692 4.827,7.08 0.02,9.793 l -87.066,49.136 c -2.884,1.628 -2.903,4.304 -0.043,5.974 l 207.182,120.934 c 4.766,2.782 4.734,7.243 -0.073,9.956 l -83.582,47.17 c -4.807,2.713 -12.594,2.682 -17.379,-0.067 L 684.202,5728.989 c -2.871,-1.649 -7.569,-1.714 -10.485,-0.144 l -28.434,15.31 c -2.916,1.57 -2.979,4.231 -0.142,5.938 l 104.29,62.751 c 4.73,2.846 4.706,7.426 -0.053,10.221 l -222.756,130.87 c -4.759,2.795 -12.491,2.805 -17.257,0.022 l -381.73,-222.914 c -4.766,-2.783 -12.515,-2.801 -17.293,-0.039 L -80,5841 l 0,-47 191.319,-109.411 c 4.791,-2.74 12.562,-2.724 17.342,0.035 l 382.678,220.877 c 4.78,2.759 12.554,2.78 17.348,0.046 l 143.126,-81.594 c 4.794,-2.734 4.808,-7.197 0.031,-9.961 l -103.688,-59.984 c -4.777,-2.764 -4.779,-7.254 -0.003,-10.02 l 102.694,-59.476 c 4.776,-2.766 12.54,-2.783 17.328,-0.038 l 207.62,119.042 c 2.873,1.647 7.547,1.663 10.431,0.036 l 9.048,-5.104 c 2.884,-1.627 2.9,-4.296 0.035,-5.957 L 709.152,5673.014 c -4.775,-2.767 -4.772,-7.256 0.006,-10.018 l 82.184,-47.492 c 4.778,-2.762 4.787,-7.261 0.019,-10.04 l -82.222,-47.928 c -4.768,-2.779 -4.775,-7.305 -0.016,-10.101 l 101.504,-59.62 c 4.759,-2.796 12.502,-2.823 17.281,-0.061 l 443.309,256.242 c 4.779,2.762 12.568,2.816 17.384,0.12 l 23.423,-13.107 c 4.816,-2.696 4.847,-7.126 0.068,-9.888 l -203.934,-117.867 c -4.779,-2.762 -4.772,-7.235 0.014,-9.983 l 202.781,-116.417 c 4.786,-2.748 12.55,-2.734 17.326,0.031 l 741.734,429.438 c 4.776,2.765 12.532,2.767 17.31,0 l 63.354,-36.652 c 4.778,-2.764 4.779,-7.254 0,-10.021 l -402.695,-233.306 c -4.775,-2.767 -4.766,-7.243 0.022,-9.989 l 203.318,-116.632 c 4.787,-2.746 12.554,-2.735 17.333,0.026 l 543.182,313.746 c 4.779,2.761 12.499,2.693 17.229,-0.151 l 61.86,-37.194 c 4.73,-2.844 4.688,-7.391 -0.093,-10.148 l -361.674,-208.51 c -4.781,-2.757 -4.784,-7.239 -0.01,-10.002 l 122.063,-70.611 c 4.777,-2.763 12.55,-2.79 17.346,-0.059 l 163.745,93.229 c 4.796,2.731 12.572,2.71 17.354,-0.046 l 182.172,-105.012 c 4.782,-2.756 12.542,-2.749 17.319,0.016 l 302.857,175.314 c 3.568,2.065 8.803,2.593 13.217,1.581 l 104.754,-60.998 c 4.77,-2.777 12.52,-2.787 17.296,-0.022 l 741.734,429.438 c 4.776,2.765 12.532,2.767 17.31,0 l 63.354,-36.652 c 4.778,-2.764 4.779,-7.254 0,-10.021 l -402.695,-233.306 c -4.775,-2.767 -4.766,-7.243 0.022,-9.989 l 203.318,-116.632 c 4.787,-2.746 12.554,-2.735 17.333,0.026 l 543.182,313.746 c 4.779,2.761 12.499,2.693 17.229,-0.151 l 61.86,-37.194 c 4.73,-2.844 4.688,-7.391 -0.093,-10.148 l -361.674,-208.51 c -4.781,-2.757 -4.784,-7.239 -0.01,-10.002 l 122.063,-70.611 c 4.777,-2.763 12.55,-2.79 17.346,-0.059 l 163.745,93.229 c 4.796,2.731 12.572,2.71 17.354,-0.046 l 182.172,-105.012 c 4.782,-2.756 12.542,-2.749 17.319,0.016 l 302.857,175.314 c 4.777,2.765 12.539,2.775 17.322,0.022 l 101.999,-58.692 c 4.783,-2.753 12.561,-2.77 17.357,-0.039 l 284.62,162.103 c 4.796,2.731 12.567,2.703 17.343,-0.064 L 5559.667,5726 l 38.666,24 -249.345,144.324 c -4.777,2.765 -12.536,2.77 -17.317,0.013 l -284.009,-163.84 c -4.781,-2.758 -12.533,-2.74 -17.301,0.04 l -102.347,59.676 c -4.768,2.78 -12.524,2.804 -17.308,0.053 l -303.704,-174.615 c -4.784,-2.751 -12.538,-2.725 -17.304,0.058 l -181.396,105.915 c -4.766,2.783 -12.511,2.795 -17.286,0.026 l -162.032,-93.967 c -4.775,-2.769 -12.549,-2.807 -17.351,-0.086 l -42.6,24.139 c -4.801,2.721 -4.821,7.173 -0.042,9.936 l 361.852,209.198 c 4.778,2.762 4.781,7.253 0.01,10.021 l -142.448,82.593 c -4.775,2.768 -12.529,2.771 -17.306,0.01 l -543.69,-314.73 c -4.777,-2.765 -12.539,-2.776 -17.323,-0.024 l -122.164,70.278 c -4.784,2.752 -4.791,7.232 -0.015,9.999 l 403.444,233.724 c 4.776,2.767 4.768,7.246 -0.017,9.996 l -143.16,82.284 c -4.785,2.75 -12.552,2.745 -17.333,-0.012 l -742.424,-428.01 c -4.781,-2.757 -12.544,-2.756 -17.325,0 l -47.634,27.474 z"
       id="path10"
       inkscape:connector-curvature="0"
       style="fill:#dee5ff;fill-rule:evenodd" />
    <path
       d="m -80,5795 0,47 190.342,-109.996 c 4.778,-2.762 12.527,-2.744 17.293,0.039 l 381.73,222.914 c 4.766,2.783 12.498,2.773 17.257,-0.022 l 222.756,-130.87 c 4.759,-2.795 4.783,-7.375 0.053,-10.221 l -104.29,-62.751 c -2.837,-1.707 -2.774,-4.368 0.142,-5.938 l 28.434,-15.31 c 2.916,-1.57 7.614,-1.505 10.485,0.144 l 207.128,119.029 c 4.785,2.749 12.572,2.78 17.379,0.067 l 83.582,-47.17 c 4.807,-2.713 4.839,-7.174 0.073,-9.956 L 785.182,5671.025 c -2.86,-1.67 -2.841,-4.346 0.043,-5.974 l 87.066,-49.136 c 4.807,-2.713 4.797,-7.101 -0.02,-9.793 l -88.033,-49.195 c -2.891,-1.615 -2.907,-4.267 -0.037,-5.918 l 29.598,-17.018 c 2.87,-1.651 7.537,-1.66 10.414,-0.02 l 135.322,77.111 -11.918,6.82 72.383,4.723 -8.187,-41.812 -12.375,7.171 -171.532,-99.227 c -4.777,-2.763 -12.52,-2.738 -17.279,0.058 l -101.504,59.62 c -4.759,2.796 -4.752,7.322 0.016,10.101 l 82.222,47.928 c 4.768,2.779 4.759,7.278 -0.019,10.04 l -82.184,47.492 c -4.778,2.762 -4.781,7.251 -0.006,10.018 l 206.157,119.477 c 2.865,1.661 2.849,4.33 -0.035,5.957 l -9.048,5.104 c -2.884,1.627 -7.558,1.611 -10.431,-0.036 l -207.62,-119.042 c -4.788,-2.745 -12.552,-2.728 -17.328,0.038 l -102.694,59.476 c -4.776,2.766 -4.774,7.256 0.003,10.02 l 103.688,59.984 c 4.777,2.764 4.763,7.227 -0.031,9.961 l -143.126,81.594 c -4.794,2.734 -12.568,2.713 -17.348,-0.046 L 128.661,5685.624 c -4.78,-2.759 -12.551,-2.775 -17.342,-0.035 L -80,5795 Z"
       id="path12"
       inkscape:connector-curvature="0"
       style="fill:#5076dd" />
    <path
       d="m 947.906,5613.719 0,4.219 9.375,-3.844 -9.375,-0.375 z"
       id="path14"
       inkscape:connector-curvature="0"
       style="fill:#5076dd" />
    <path
       d="m 1019.813,5622.531 0,-4.218 -6.75,0.093 6.75,4.125 z"
       id="path16"
       inkscape:connector-curvature="0"
       style="fill:#5076dd" />
    <path
       d="m 995.922,5796.992 0.016,-4.054 -2.125,2.562 2.109,1.492 z"
       id="path18"
       inkscape:connector-curvature="0"
       style="fill:#5076dd" />
    <path
       d="m 705.551,5668.727 0,-3.832 1.265,2.425 -1.265,1.407 z"
       id="path20"
       inkscape:connector-curvature="0"
       style="fill:#5076dd" />
    <path
       d="m 752.959,5818.883 -0.006,-4.07 -1.734,2.906 1.74,1.164 z"
       id="path22"
       inkscape:connector-curvature="0"
       style="fill:#5076dd" />
    <path
       d="m 564.574,5745.895 0,3.937 1.672,-1.28 -1.672,-2.657 z"
       id="path24"
       inkscape:connector-curvature="0"
       style="fill:#5076dd" />
    <linearGradient
       id="_lgradient_0"
       x1="0.35234159"
       y1="0.33699197"
       x2="1.0685686"
       y2="0.65914345"
       gradientTransform="matrix(1100,0,0,476.25,-80,5479.75)"
       gradientUnits="userSpaceOnUse">
      <stop
         offset="0%"
         stop-opacity="1"
         style="stop-color:rgb(117,110,253)"
         id="stop27" />
      <stop
         offset="99.56521739130434%"
         stop-opacity="1"
         style="stop-color:rgb(86,159,250)"
         id="stop29" />
    </linearGradient>
    <path
       d="m -80,5791 0,47 190.342,-109.996 c 4.778,-2.762 12.527,-2.744 17.293,0.039 l 381.73,222.914 c 4.766,2.783 12.498,2.773 17.257,-0.022 l 222.756,-130.87 c 4.759,-2.795 4.783,-7.375 0.053,-10.221 l -104.29,-62.751 c -2.837,-1.707 -2.774,-4.368 0.142,-5.938 l 28.434,-15.31 c 2.916,-1.57 7.614,-1.505 10.485,0.144 l 207.128,119.029 c 4.785,2.749 12.572,2.78 17.379,0.067 l 83.582,-47.17 c 4.807,-2.713 4.839,-7.174 0.073,-9.956 L 785.182,5667.025 c -2.86,-1.67 -2.841,-4.346 0.043,-5.974 l 87.066,-49.136 c 4.807,-2.713 4.797,-7.101 -0.02,-9.793 l -88.033,-49.195 c -2.891,-1.615 -2.907,-4.267 -0.037,-5.918 l 29.598,-17.018 c 2.87,-1.651 7.537,-1.66 10.414,-0.02 l 135.322,77.111 -11.918,6.82 72.383,4.723 -8.187,-41.812 -12.375,7.171 -171.532,-99.227 c -4.777,-2.763 -12.52,-2.738 -17.279,0.058 l -101.504,59.62 c -4.759,2.796 -4.752,7.322 0.016,10.101 l 82.222,47.928 c 4.768,2.779 4.759,7.278 -0.019,10.04 l -82.184,47.492 c -4.778,2.762 -4.781,7.251 -0.006,10.018 l 206.157,119.477 c 2.865,1.661 2.849,4.33 -0.035,5.957 l -9.048,5.104 c -2.884,1.627 -7.558,1.611 -10.431,-0.036 l -207.62,-119.042 c -4.788,-2.745 -12.552,-2.728 -17.328,0.038 l -102.694,59.476 c -4.776,2.766 -4.774,7.256 0.003,10.02 l 103.688,59.984 c 4.777,2.764 4.763,7.227 -0.031,9.961 l -143.126,81.594 c -4.794,2.734 -12.568,2.713 -17.348,-0.046 L 128.661,5681.624 c -4.78,-2.759 -12.551,-2.775 -17.342,-0.035 L -80,5791 Z"
       id="path31"
       inkscape:connector-curvature="0"
       style="fill:url(#_lgradient_0)" />
    <g
       id="g33">
      <g
         id="g35">
        <g
           id="g37">
          <path
             d="m 377.664,5833.775 -16.798,9.699 0,-19.398 16.798,-9.698 0,19.397 z"
             id="path39"
             inkscape:connector-curvature="0"
             style="fill:#2bc183" />
          <path
             d="m 360.964,5843.699 -16.798,-9.699 0,-19.583 16.7,9.659 0.098,19.623 z"
             id="path41"
             inkscape:connector-curvature="0"
             style="fill:#39d394" />
          <path
             d="m 360.866,5824.076 -16.798,-9.698 16.799,-9.699 16.798,9.699 -16.799,9.698 z"
             id="path43"
             inkscape:connector-curvature="0"
             style="fill:#56ce9c" />
        </g>
      </g>
      <g
         id="g45">
        <g
           id="g47">
          <path
             d="m 790.664,5687.775 -16.798,9.699 0,-19.398 16.798,-9.698 0,19.397 z"
             id="path49"
             inkscape:connector-curvature="0"
             style="fill:#2bc183" />
          <path
             d="m 773.964,5697.699 -16.798,-9.699 0,-19.583 16.7,9.659 0.098,19.623 z"
             id="path51"
             inkscape:connector-curvature="0"
             style="fill:#39d394" />
          <path
             d="m 773.866,5678.076 -16.798,-9.698 16.799,-9.699 16.798,9.699 -16.799,9.698 z"
             id="path53"
             inkscape:connector-curvature="0"
             style="fill:#56ce9c" />
        </g>
        <g
           id="g55">
          <path
             d="m 783.997,5661.226 -10.131,5.848 0,-11.698 10.131,-5.848 0,11.698 z"
             id="path57"
             inkscape:connector-curvature="0"
             style="fill:#2bc183" />
          <path
             d="m 773.925,5667.21 -10.13,-5.849 0,-11.809 10.071,5.824 0.059,11.834 z"
             id="path59"
             inkscape:connector-curvature="0"
             style="fill:#39d394" />
          <path
             d="m 773.866,5655.376 -10.13,-5.848 10.131,-5.849 10.13,5.849 -10.131,5.848 z"
             id="path61"
             inkscape:connector-curvature="0"
             style="fill:#56ce9c" />
        </g>
      </g>
    </g>
    <g
       id="g63">
      <g
         transform="translate(1869.12,5472.108)"
         id="g65">
        <text
           transform="translate(0,13.09)"
           style="font-style:normal;font-weight:700;font-size:14px;font-family:Rubik;fill:#f5f6fa;stroke:none"
           id="text67">Q2 2019</text>
      </g>
      <g
         transform="translate(1869.12,5497.129)"
         id="g69">
        <text
           transform="translate(0,14.964)"
           style="font-style:normal;font-weight:400;font-size:14px;font-family:'Open Sans';letter-spacing:0.30000001;fill:#f5f6fa;stroke:none"
           id="text71">Debugging of software, increase the</text>
        <text
           transform="translate(0,39.749)"
           style="font-style:normal;font-weight:400;font-size:14px;font-family:'Open Sans';letter-spacing:0.30000001;fill:#f5f6fa;stroke:none"
           id="text73">turnover</text>
      </g>
    </g>
  </g>
</svg>
